{
  "project_info": {
    "project_number": "86454441283",
    "firebase_url": "https://veloz4k-default-rtdb.firebaseio.com",
    "project_id": "hizli",
    "storage_bucket": "hizli.appspot.com"
  },
  "client": [
    {
      "client_info": {
        "mobilesdk_app_id": "1:86454441283:android:c202cd3ecb6f8732ea4bf6",
        "android_client_info": {
          "package_name": "com.hizli.driver"
        }
      },
      "oauth_client": [
        {
          "client_id": "86454441283-f5hehfipt8a2uomuiqi0nefmch2ect3p.apps.googleusercontent.com",
          "client_type": 3
        }
      ],
      "api_key": [
        {
          "current_key": "AIzaSyCJ76BvFGsJ_cjsR_t54xhUNEMiNLQlFbk"
        }
      ],
      "services": {
        "appinvite_service": {
          "other_platform_oauth_client": [
            {
              "client_id": "86454441283-f5hehfipt8a2uomuiqi0nefmch2ect3p.apps.googleusercontent.com",
              "client_type": 3
            }
          ]
        }
      }
    },
    {
      "client_info": {
        "mobilesdk_app_id": "1:86454441283:android:9615b410ed4ff755ea4bf6",
        "android_client_info": {
          "package_name": "com.hizli.user"
        }
      },
      "oauth_client": [
        {
          "client_id": "86454441283-f5hehfipt8a2uomuiqi0nefmch2ect3p.apps.googleusercontent.com",
          "client_type": 3
        }
      ],
      "api_key": [
        {
          "current_key": "AIzaSyCJ76BvFGsJ_cjsR_t54xhUNEMiNLQlFbk"
        }
      ],
      "services": {
        "appinvite_service": {
          "other_platform_oauth_client": [
            {
              "client_id": "86454441283-f5hehfipt8a2uomuiqi0nefmch2ect3p.apps.googleusercontent.com",
              "client_type": 3
            }
          ]
        }
      }
    },
    {
      "client_info": {
        "mobilesdk_app_id": "1:86454441283:android:90a6a0f3585f8487ea4bf6",
        "android_client_info": {
          "package_name": "com.hizli.driver"
        }
      },
      "oauth_client": [
        {
          "client_id": "86454441283-f5hehfipt8a2uomuiqi0nefmch2ect3p.apps.googleusercontent.com",
          "client_type": 3
        }
      ],
      "api_key": [
        {
          "current_key": "AIzaSyCJ76BvFGsJ_cjsR_t54xhUNEMiNLQlFbk"
        }
      ],
      "services": {
        "appinvite_service": {
          "other_platform_oauth_client": [
            {
              "client_id": "86454441283-f5hehfipt8a2uomuiqi0nefmch2ect3p.apps.googleusercontent.com",
              "client_type": 3
            }
          ]
        }
      }
    },
    {
      "client_info": {
        "mobilesdk_app_id": "1:86454441283:android:5921762a622a0adbea4bf6",
        "android_client_info": {
          "package_name": "com.hizli.user"
        }
      },
      "oauth_client": [
        {
          "client_id": "86454441283-f5hehfipt8a2uomuiqi0nefmch2ect3p.apps.googleusercontent.com",
          "client_type": 3
        }
      ],
      "api_key": [
        {
          "current_key": "AIzaSyCJ76BvFGsJ_cjsR_t54xhUNEMiNLQlFbk"
        }
      ],
      "services": {
        "appinvite_service": {
          "other_platform_oauth_client": [
            {
              "client_id": "86454441283-f5hehfipt8a2uomuiqi0nefmch2ect3p.apps.googleusercontent.com",
              "client_type": 3
            }
          ]
        }
      }
    },
    {
      "client_info": {
        "mobilesdk_app_id": "1:86454441283:android:a419d3469bc4efeaea4bf6",
        "android_client_info": {
          "package_name": "com.shopflash.motorista"
        }
      },
      "oauth_client": [
        {
          "client_id": "86454441283-f5hehfipt8a2uomuiqi0nefmch2ect3p.apps.googleusercontent.com",
          "client_type": 3
        }
      ],
      "api_key": [
        {
          "current_key": "AIzaSyCJ76BvFGsJ_cjsR_t54xhUNEMiNLQlFbk"
        }
      ],
      "services": {
        "appinvite_service": {
          "other_platform_oauth_client": [
            {
              "client_id": "86454441283-f5hehfipt8a2uomuiqi0nefmch2ect3p.apps.googleusercontent.com",
              "client_type": 3
            }
          ]
        }
      }
    },
    {
      "client_info": {
        "mobilesdk_app_id": "1:86454441283:android:491451954f846cbaea4bf6",
        "android_client_info": {
          "package_name": "com.shopflash.usuario"
        }
      },
      "oauth_client": [
        {
          "client_id": "86454441283-f5hehfipt8a2uomuiqi0nefmch2ect3p.apps.googleusercontent.com",
          "client_type": 3
        }
      ],
      "api_key": [
        {
          "current_key": "AIzaSyCJ76BvFGsJ_cjsR_t54xhUNEMiNLQlFbk"
        }
      ],
      "services": {
        "appinvite_service": {
          "other_platform_oauth_client": [
            {
              "client_id": "86454441283-f5hehfipt8a2uomuiqi0nefmch2ect3p.apps.googleusercontent.com",
              "client_type": 3
            }
          ]
        }
      }
    },
    {
      "client_info": {
        "mobilesdk_app_id": "1:86454441283:android:c9121995c8f494b4ea4bf6",
        "android_client_info": {
          "package_name": "com.hizli.driver"
        }
      },
      "oauth_client": [
        {
          "client_id": "86454441283-f5hehfipt8a2uomuiqi0nefmch2ect3p.apps.googleusercontent.com",
          "client_type": 3
        }
      ],
      "api_key": [
        {
          "current_key": "AIzaSyCJ76BvFGsJ_cjsR_t54xhUNEMiNLQlFbk"
        }
      ],
      "services": {
        "appinvite_service": {
          "other_platform_oauth_client": [
            {
              "client_id": "86454441283-f5hehfipt8a2uomuiqi0nefmch2ect3p.apps.googleusercontent.com",
              "client_type": 3
            }
          ]
        }
      }
    },
    {
      "client_info": {
        "mobilesdk_app_id": "1:86454441283:android:14c46ff0d4ff7043ea4bf6",
        "android_client_info": {
          "package_name": "com.veloz4k.user"
        }
      },
      "oauth_client": [
        {
          "client_id": "86454441283-f5hehfipt8a2uomuiqi0nefmch2ect3p.apps.googleusercontent.com",
          "client_type": 3
        }
      ],
      "api_key": [
        {
          "current_key": "AIzaSyCJ76BvFGsJ_cjsR_t54xhUNEMiNLQlFbk"
        }
      ],
      "services": {
        "appinvite_service": {
          "other_platform_oauth_client": [
            {
              "client_id": "86454441283-f5hehfipt8a2uomuiqi0nefmch2ect3p.apps.googleusercontent.com",
              "client_type": 3
            }
          ]
        }
      }
    },
    {
      "client_info": {
        "mobilesdk_app_id": "1:86454441283:android:3ab91546ab9ffa02ea4bf6",
        "android_client_info": {
          "package_name": "com.hizli.driver"
        }
      },
      "oauth_client": [
        {
          "client_id": "86454441283-f5hehfipt8a2uomuiqi0nefmch2ect3p.apps.googleusercontent.com",
          "client_type": 3
        }
      ],
      "api_key": [
        {
          "current_key": "AIzaSyCJ76BvFGsJ_cjsR_t54xhUNEMiNLQlFbk"
        }
      ],
      "services": {
        "appinvite_service": {
          "other_platform_oauth_client": [
            {
              "client_id": "86454441283-f5hehfipt8a2uomuiqi0nefmch2ect3p.apps.googleusercontent.com",
              "client_type": 3
            }
          ]
        }
      }
    },
    {
      "client_info": {
        "mobilesdk_app_id": "1:86454441283:android:93ae20730dee8c37ea4bf6",
        "android_client_info": {
          "package_name": "com.hizli.user"
        }
      },
      "oauth_client": [
        {
          "client_id": "86454441283-f5hehfipt8a2uomuiqi0nefmch2ect3p.apps.googleusercontent.com",
          "client_type": 3
        }
      ],
      "api_key": [
        {
          "current_key": "AIzaSyCJ76BvFGsJ_cjsR_t54xhUNEMiNLQlFbk"
        }
      ],
      "services": {
        "appinvite_service": {
          "other_platform_oauth_client": [
            {
              "client_id": "86454441283-f5hehfipt8a2uomuiqi0nefmch2ect3p.apps.googleusercontent.com",
              "client_type": 3
            }
          ]
        }
      }
    }
  ],
  "configuration_version": "1"
}